                 SiI9533 芯片初始化

  1、硬件复位 ---  RESET_N --- 低电平复位

  2、读取SiI9533的ID、版本号等信息，以确定I2C通信是否正常

  3、配置时钟

  4、初始化寄存器（附录中给出的寄存器）

  5、配置 Tx

  6、软件复位

  7、配置音频通道

  8、使能TPI TMDS输出通道

  9、TPI Power Up

  10、配置 Rx (Rx Term , Rx EDID ,Rx HPD , Rx HDCP)

  11、Tx 输出使能

  12、选择Rx（选择视频输入端口---3进1出）

-----------------------------------------------------------------------
 
              寄存器配置（重要寄存器配置）

   格式说明   设备地址：寄存器地址  要操作的位  要写入的值

1、
   0x66:0xD0 0xFF 0x00     // PLL 时钟配置

2、
   0x50:0x3A 0x01 0x00     // 失能端口逻辑改变寄存器，初始化寄存器前必须失能此寄存器  improtant
   0xB0:0x05 0x01 0xFF     // 复位芯片

   0xB0:0x07 0x01 0xFF     // 复位 HDCP OTP
   delayms                 // 延时
   0xB0:0x07 0x01 0x00     // 正常操作

   按附录初始化寄存器
 
   0xB0:0x8A 0xFF 0x0F     
   0xB0:0x88 0xFF 0x0F  

3、
   0xE0:0x14 0xFF 0x3F     // 失能硬件控制HPD和EDID DDC通道 Auto-HPD 
   0x50:0x1D 0x08 0x01      

   0xB0:0x84 0x18 0x00
   0xB0:0xB5 0x18 0x00

4、
   0x50:0x88 0xFC 0x00     // 失能硬件 Auto-HPD
   0x50:0x91 0xFF 0x0C     // 

   0x50:0x1A 0xFC 0x01
   0x50:0x1B 0x10 0x00
   0xB0:0x7D 0xFF 0x01

   0xB0:0x50 0xFF 0x40
 
   0xF8:0x62 0x01 0xFF

5、输出通道配置（Tx）
   0x72:0xC7 0xFF 0x00
   0x72:0xFA 0xFF 0x0E     // DDC 速率

   0x72:0x2A 0xFF 0x40     // 使能取消HDCP保护
   0x72:0x1A 0xFF 0x10     // TMDS output power down

   0x72:0xB9 0xFF 0xB0
  
   0x72:0x3C 0x83 0x01     // 失能中断
   0x72:0x3F 0x03 0x01

   0x72:0x1A 0x10 0xFF     // 使能TMDS output 

   0x72:0x3C 0x83 0x00     // 使能中断
   0x72:0x3F 0x03 0x00
   
   0x72:0x3C 0xFF 0x83
   0x72:0x3F 0xFF 0x03   

   0x72:0x1E 0xFF 0x02

   0x72:0x1A 0x08 0x00     // 

   TxHdcpInit();

6、
   0x72:0xBD 0xFF 0x83     // TPI TMDS OUTPUT Enable
   0x72:0xBE 0xFF 0x88

   0x72:0x1A 0x10 0x00     // TPI TMDS OUTPUT Mode Set
   0x72:0x1A 0x01 0xFF

7、
   0x72:0x1E 0xFF 0x00     // TPI Power up

8、
   SiiDrvDeviceStart();

9、
   0xB0:0x50 0x4C 0x40     // 输出通道（Tx）使能

10、
   sii_9533_PortSelectSource(unsigned char portIndex)；






   

  


  





































 
   











