C51 COMPILER V9.01   STC_EEPROM                                                            07/06/2015 19:14:47 PAGE 1   


C51 COMPILER V9.01, COMPILATION OF MODULE STC_EEPROM
OBJECT MODULE PLACED IN ..\OUTPUT\stc_eeprom.obj
COMPILER INVOKED BY: D:\studysoftware\KeilC51\anzhuang\C51\BIN\C51.EXE ..\MCU\stc_eeprom.c LARGE BROWSE INCDIR(..\BSP;..
                    -\MCU;..\APP;..\BSP\BSP_LED;..\BSP\I2C;..\BSP\AT24C02;..\BSP\SiI9533) DEBUG OBJECTEXTEND PRINT(.\stc_eeprom.lst) OBJECT(.
                    -.\OUTPUT\stc_eeprom.obj)

line level    source

   1          #include "stc_eeprom.h"
   2          
   3          /*
   4           * @brief  Disable EEPROM function, make MCU in a safe state .
   5           * @param  None
   6           * @retval None
   7           */
   8          void STC_EEPROM_Idle(void)
   9          {
  10   1          IAP_CONTR = 0;
  11   1              IAP_CMD = 0;
  12   1              IAP_TRIG = 0;
  13   1              IAP_ADDRH = 0x80;
  14   1              IAP_ADDRL = 0x00;
  15   1      }
  16          
  17          /*
  18           * @brief  Write one byte data to EEPROM  .
  19           * @param  addr: 
  20           *         dat :
  21           * @retval None
  22           */
  23          void STC_EEPROM_WriteByte(unsigned int addr, unsigned char bytedata)
  24          {
  25   1          IAP_CONTR = IAP_ENABLE;
  26   1              IAP_CMD = IAP_CMD_WRITE;
  27   1              IAP_ADDRH = addr>>8;
  28   1              IAP_ADDRL = addr;
  29   1              IAP_DATA = bytedata;
  30   1              IAP_TRIG = 0x5A;
  31   1              IAP_TRIG = 0xA5; 
  32   1              _nop_();
  33   1      
  34   1              STC_EEPROM_Idle();
  35   1      }
  36          
  37          /*
  38           * @brief  Resd one byte data from EEPROM .
  39           * @param  addr: The address of the data .
  40           * @retval data.
  41           */
  42          unsigned char STC_EEPROM_ReadByte(unsigned int addr)
  43          {
  44   1          unsigned char dat=0;
  45   1      
  46   1              IAP_CONTR = IAP_ENABLE;
  47   1              IAP_CMD = IAP_CMD_READ;
  48   1              IAP_ADDRH =     addr>>8;
  49   1              IAP_ADDRL =     addr;
  50   1              IAP_TRIG = 0x5A;
  51   1              IAP_TRIG = 0xA5;
  52   1              _nop_();
  53   1      
C51 COMPILER V9.01   STC_EEPROM                                                            07/06/2015 19:14:47 PAGE 2   

  54   1              dat = IAP_DATA;
  55   1          STC_EEPROM_Idle();
  56   1      
  57   1          return dat;
  58   1      }
  59          
  60          /*
  61           * @brief  EEPROM erase one sector(1 sector:512 Byte) .
  62           * @param  addr: 0x0000 or 0x0200.(STC11L60XE EEPROM is 1K(sector1:0x0000~0x01FF   sector2:0x0200~0x03FF))
  63           * @retval None
  64           */
  65          void STC_EEPROM_EraseSector(unsigned int addr)
  66          {
  67   1              IAP_CONTR = IAP_ENABLE;
  68   1              IAP_CMD = IAP_CMD_ERASE;
  69   1              IAP_ADDRH =     addr>>8;
  70   1              IAP_ADDRL =     addr;
  71   1              IAP_TRIG = 0x5A;
  72   1              IAP_TRIG = 0xA5; 
  73   1              _nop_();
  74   1      
  75   1              STC_EEPROM_Idle();   
  76   1      }
  77          
  78          
  79          
  80          
  81          


MODULE INFORMATION:   STATIC OVERLAYABLE
   CODE SIZE        =    101    ----
   CONSTANT SIZE    =   ----    ----
   XDATA SIZE       =   ----    ----
   PDATA SIZE       =   ----    ----
   DATA SIZE        =   ----    ----
   IDATA SIZE       =   ----    ----
   BIT SIZE         =   ----    ----
END OF MODULE INFORMATION.


C51 COMPILATION COMPLETE.  0 WARNING(S),  0 ERROR(S)
